{"response":{"status":"ok","userTier":"developer","total":23983,"startIndex":1,"pageSize":10,"currentPage":1,"pages":2399,"orderBy":"relevance","results":[{"id":"teacher-network/2017/jul/04/is-technology-delivering-in-schools-our-panel-debates","type":"article","sectionId":"teacher-network","sectionName":"Teacher Network","webPublicationDate":"2017-07-04T11:05:54Z","webTitle":"Is technology delivering in schools? Our panel debates","webUrl":"https://www.theguardian.com/teacher-network/2017/jul/04/is-technology-delivering-in-schools-our-panel-debates","apiUrl":"https://content.guardianapis.com/teacher-network/2017/jul/04/is-technology-delivering-in-schools-our-panel-debates","isHosted":false},{"id":"politics/2017/apr/18/theresa-may-rules-out-participating-in-tv-debates-before-election","type":"article","sectionId":"politics","sectionName":"Politics","webPublicationDate":"2017-04-18T17:20:59Z","webTitle":"Theresa May rules out participating in TV debates before election","webUrl":"https://www.theguardian.com/politics/2017/apr/18/theresa-may-rules-out-participating-in-tv-debates-before-election","apiUrl":"https://content.guardianapis.com/politics/2017/apr/18/theresa-may-rules-out-participating-in-tv-debates-before-election","isHosted":false}]}}
